\relax 
\@writefile{toc}{\contentsline {section}{\numberline {1}sets and general probability}{1}}
\@writefile{toc}{\contentsline {section}{\numberline {2}counting}{1}}
\@writefile{toc}{\contentsline {section}{\numberline {3}probability distributions}{1}}
\@writefile{toc}{\contentsline {section}{\numberline {4}sums}{1}}
\@writefile{toc}{\contentsline {section}{\numberline {5}notations}{1}}
