\relax 
\@writefile{toc}{\contentsline {section}{\numberline {1}Chapter 3}{1}}
\@writefile{toc}{\contentsline {subsection}{\numberline {1.1}26: Salesperson}{1}}
\@writefile{toc}{\contentsline {subsection}{\numberline {1.2}34: Stockroom manager}{1}}
\@writefile{toc}{\contentsline {subsection}{\numberline {1.3}54: Binomial Random Variables}{2}}
\@writefile{toc}{\contentsline {subsection}{\numberline {1.4}59: Motors}{2}}
\@writefile{toc}{\contentsline {subsection}{\numberline {1.5}70: Number of holes until a productive well}{2}}
\@writefile{toc}{\contentsline {subsection}{\numberline {1.6}78: Some direct calculations woot}{2}}
\@writefile{toc}{\contentsline {subsection}{\numberline {1.7}110: Corporation sampling to purchase supplies}{2}}
\@writefile{toc}{\contentsline {subsection}{\numberline {1.8}122: Customers arriving at checkout counter}{2}}
\@writefile{toc}{\contentsline {subsection}{\numberline {1.9}130: Number of cars through an entrance}{3}}
\@writefile{toc}{\contentsline {subsection}{\numberline {1.10}140: This is way too complicated for this time at night}{3}}
\@writefile{toc}{\contentsline {subsection}{\numberline {1.11}160: Binomial random variables equivalences}{3}}
\@writefile{toc}{\contentsline {subsection}{\numberline {1.12}162: Proofish}{3}}
