\relax 
\@writefile{toc}{\contentsline {section}{\numberline {1}Chapter 2}{1}}
\@writefile{toc}{\contentsline {subsection}{\numberline {1.1}Problem 12: Vehicles}{1}}
\@writefile{toc}{\contentsline {subsection}{\numberline {1.2}Problem 22: Proof}{1}}
\@writefile{toc}{\contentsline {subsection}{\numberline {1.3}Problem 28: Four qualified job applicants}{1}}
\@writefile{toc}{\contentsline {subsection}{\numberline {1.4}34: Stereo Consoles}{1}}
\@writefile{toc}{\contentsline {subsection}{\numberline {1.5}40: Automobiles}{1}}
\@writefile{toc}{\contentsline {subsection}{\numberline {1.6}48: Expansion}{1}}
\@writefile{toc}{\contentsline {subsection}{\numberline {1.7}56: Test preparation}{1}}
\@writefile{toc}{\contentsline {subsection}{\numberline {1.8}62: Manufacturer}{1}}
\@writefile{toc}{\contentsline {subsection}{\numberline {1.9}68: Proofs}{1}}
\@writefile{toc}{\contentsline {subsection}{\numberline {1.10}82: Predicate logic}{1}}
\@writefile{toc}{\contentsline {subsection}{\numberline {1.11}88: Events}{2}}
\@writefile{toc}{\contentsline {subsection}{\numberline {1.12}96: Independent event probabilities}{2}}
\@writefile{toc}{\contentsline {subsection}{\numberline {1.13}118: Accident victim}{2}}
