\relax 
\providecommand\hyper@newdestlabel[2]{}
\providecommand\HyperFirstAtBeginDocument{\AtBeginDocument}
\HyperFirstAtBeginDocument{\ifx\hyper@anchor\@undefined
\global\let\oldcontentsline\contentsline
\gdef\contentsline#1#2#3#4{\oldcontentsline{#1}{#2}{#3}}
\global\let\oldnewlabel\newlabel
\gdef\newlabel#1#2{\newlabelxx{#1}#2}
\gdef\newlabelxx#1#2#3#4#5#6{\oldnewlabel{#1}{{#2}{#3}}}
\AtEndDocument{\ifx\hyper@anchor\@undefined
\let\contentsline\oldcontentsline
\let\newlabel\oldnewlabel
\fi}
\fi}
\global\let\hyper@last\relax 
\gdef\HyperFirstAtBeginDocument#1{#1}
\providecommand\HyField@AuxAddToFields[1]{}
\providecommand\HyField@AuxAddToCoFields[2]{}
\@writefile{lof}{\deactivateaddvspace  }
\@writefile{lot}{\deactivateaddvspace  }
\@writefile{toc}{\contentsline {section}{\numberline {1}3.202}{1}{section.1}}
\@writefile{toc}{\contentsline {subsection}{\numberline {1.1}Probability of space existing in lot}{1}{subsection.1.1}}
\@writefile{toc}{\contentsline {subsection}{\numberline {1.2}Derive the number of drivers who wish to park during a one minute interval as a probability distribution}{2}{subsection.1.2}}
\@writefile{toc}{\contentsline {section}{\numberline {2}3.206}{2}{section.2}}
\@writefile{toc}{\contentsline {section}{\numberline {3}4.12}{2}{section.3}}
\@writefile{toc}{\contentsline {section}{\numberline {4}4.30}{3}{section.4}}
\@writefile{toc}{\contentsline {section}{\numberline {5}4.48}{3}{section.5}}
\@writefile{toc}{\contentsline {section}{\numberline {6}4.76}{3}{section.6}}
\@writefile{toc}{\contentsline {section}{\numberline {7}4.80}{4}{section.7}}
\@writefile{toc}{\contentsline {section}{\numberline {8}4.94}{4}{section.8}}
\@writefile{toc}{\contentsline {section}{\numberline {9}4.104}{4}{section.9}}
\@writefile{toc}{\contentsline {section}{\numberline {10}4.111}{4}{section.10}}
\@writefile{toc}{\contentsline {section}{\numberline {11}4.126}{5}{section.11}}
\@writefile{toc}{\contentsline {section}{\numberline {12}4.130}{5}{section.12}}
\@writefile{toc}{\contentsline {section}{\numberline {13}4.134}{5}{section.13}}
\@writefile{toc}{\contentsline {section}{\numberline {14}4.140}{6}{section.14}}
\@writefile{toc}{\contentsline {section}{\numberline {15}4.186}{6}{section.15}}
