\relax 
\providecommand\hyper@newdestlabel[2]{}
\providecommand\HyperFirstAtBeginDocument{\AtBeginDocument}
\HyperFirstAtBeginDocument{\ifx\hyper@anchor\@undefined
\global\let\oldcontentsline\contentsline
\gdef\contentsline#1#2#3#4{\oldcontentsline{#1}{#2}{#3}}
\global\let\oldnewlabel\newlabel
\gdef\newlabel#1#2{\newlabelxx{#1}#2}
\gdef\newlabelxx#1#2#3#4#5#6{\oldnewlabel{#1}{{#2}{#3}}}
\AtEndDocument{\ifx\hyper@anchor\@undefined
\let\contentsline\oldcontentsline
\let\newlabel\oldnewlabel
\fi}
\fi}
\global\let\hyper@last\relax 
\gdef\HyperFirstAtBeginDocument#1{#1}
\providecommand\HyField@AuxAddToFields[1]{}
\providecommand\HyField@AuxAddToCoFields[2]{}
\@writefile{lof}{\deactivateaddvspace  }
\@writefile{lot}{\deactivateaddvspace  }
\@writefile{toc}{\contentsline {section}{\numberline {1}5.16}{1}{section.1}}
\@writefile{toc}{\contentsline {section}{\numberline {2}5.40}{1}{section.2}}
\@writefile{toc}{\contentsline {section}{\numberline {3}5.56}{2}{section.3}}
\@writefile{toc}{\contentsline {section}{\numberline {4}5.66}{2}{section.4}}
\@writefile{toc}{\contentsline {section}{\numberline {5}5.70}{3}{section.5}}
\@writefile{toc}{\contentsline {section}{\numberline {6}5.80}{3}{section.6}}
\@writefile{toc}{\contentsline {section}{\numberline {7}5.96}{3}{section.7}}
\@writefile{toc}{\contentsline {section}{\numberline {8}5.100}{4}{section.8}}
\@writefile{toc}{\contentsline {section}{\numberline {9}5.108}{4}{section.9}}
