\BOOKMARK [1][-]{section.1}{5.16}{}% 1
\BOOKMARK [1][-]{section.2}{5.40}{}% 2
\BOOKMARK [1][-]{section.3}{5.56}{}% 3
\BOOKMARK [1][-]{section.4}{5.66}{}% 4
\BOOKMARK [1][-]{section.5}{5.70}{}% 5
\BOOKMARK [1][-]{section.6}{5.80}{}% 6
\BOOKMARK [1][-]{section.7}{5.96}{}% 7
\BOOKMARK [1][-]{section.8}{5.100}{}% 8
\BOOKMARK [1][-]{section.9}{5.108}{}% 9
